{
	"general": {
		"email": "",
		"gpgkey": "",
		"cachedir": "",
		"defaultrepo": "",
		"scripts": ""
	},
	"build": {
		"command": "extra-x86_64-build",
		"signed": false
	},
	"packages": {
		"dummy": {
			"address": "",
			"command": ""
		}
	},
	"repos": {
		"dummy": {
			"address": "",
			"archs": ["x86_64", "i686"],
			"signed": false,
			"command": ""
		}
	}
}